…
#### 1.1 Washington DC was not assigned to a region in this dataset. According to the United States Census Bureau, however, DC is part of the South region. Here:

-   Change the region of DC to “South” (Hint: there are multiple ways to
    do this, but `mutate()` and `ifelse()` might be helpful)

    ``` r
    housing |> 
      mutate(region = ifelse(State=="DC",
                             "South", 
                             region)) |> 
      select(region, State, Land.Value, Date)
    ```

        # A tibble: 7,803 × 4
           region State Land.Value  Date
           <chr>  <chr>      <dbl> <dbl>
         1 West   AK         64352 2010.
         2 West   AK         65259 2010.
         3 West   AK         62029 2010.
         4 West   AK         63207 2010 
         5 West   AK         79190 2008 
         6 West   AK         76256 2008.
         7 West   AK         72906 2008.
         8 West   AK         69460 2009.
         9 West   AK         66299 2009 
        10 West   AK         63971 2009.
        # ℹ 7,793 more rows
…
